{
    "swagger": "2.0",
    "info": {
        "description": "Some test API",
        "title": "Some API",
        "contact": {},
        "version": "1.0"
    },
    "host": "0.0.0.0:8080",
    "basePath": "/",
    "paths": {
        "/api/v1/authors": {
            "get": {
                "security": [
                    {
                        "ApiKeyAuth": []
                    }
                ],
                "description": "FindAuthors",
                "consumes": [
                    "application/json"
                ],
                "produces": [
                    "application/json"
                ],
                "summary": "FindAuthors",
                "operationId": "FindAuthors",
                "responses": {
                    "200": {
                        "description": "OK",
                        "schema": {
                            "$ref": "#/definitions/models.Author"
                        }
                    }
                }
            },
            "post": {
                "security": [
                    {
                        "ApiKeyAuth": []
                    }
                ],
                "description": "CreateAuthor",
                "consumes": [
                    "application/json"
                ],
                "produces": [
                    "application/json"
                ],
                "summary": "CreateAuthor",
                "operationId": "CreateAuthor",
                "parameters": [
                    {
                        "description": "body data",
                        "name": "data",
                        "in": "body",
                        "required": true,
                        "schema": {
                            "$ref": "#/definitions/controllers.CreateAuthorInput"
                        }
                    }
                ],
                "responses": {
                    "200": {
                        "description": "OK",
                        "schema": {
                            "$ref": "#/definitions/models.Author"
                        }
                    }
                }
            }
        },
        "/api/v1/authors/{id}/books": {
            "get": {
                "security": [
                    {
                        "ApiKeyAuth": []
                    }
                ],
                "description": "AuthorBooks",
                "consumes": [
                    "application/json"
                ],
                "produces": [
                    "application/json"
                ],
                "summary": "AuthorBooks",
                "operationId": "AuthorBooks",
                "parameters": [
                    {
                        "type": "string",
                        "description": "Author ID",
                        "name": "id",
                        "in": "path",
                        "required": true
                    }
                ],
                "responses": {
                    "200": {
                        "description": "OK",
                        "schema": {
                            "$ref": "#/definitions/controllers.AuthorBooksOutput"
                        }
                    }
                }
            }
        },
        "/api/v1/books": {
            "get": {
                "security": [
                    {
                        "ApiKeyAuth": []
                    }
                ],
                "description": "FindBooks",
                "consumes": [
                    "application/json"
                ],
                "produces": [
                    "application/json"
                ],
                "summary": "FindBooks",
                "operationId": "FindBooks",
                "responses": {
                    "200": {
                        "description": "OK",
                        "schema": {
                            "$ref": "#/definitions/models.Book"
                        }
                    }
                }
            },
            "post": {
                "security": [
                    {
                        "ApiKeyAuth": []
                    }
                ],
                "description": "FindBooks",
                "consumes": [
                    "application/json"
                ],
                "produces": [
                    "application/json"
                ],
                "summary": "CreateBook",
                "operationId": "CreateBook",
                "parameters": [
                    {
                        "description": "body data",
                        "name": "data",
                        "in": "body",
                        "required": true,
                        "schema": {
                            "$ref": "#/definitions/controllers.CreateBookInput"
                        }
                    }
                ],
                "responses": {
                    "200": {
                        "description": "OK",
                        "schema": {
                            "$ref": "#/definitions/models.Book"
                        }
                    }
                }
            }
        },
        "/api/v1/books/{id}": {
            "get": {
                "security": [
                    {
                        "ApiKeyAuth": []
                    }
                ],
                "description": "FindBook",
                "consumes": [
                    "application/json"
                ],
                "produces": [
                    "application/json"
                ],
                "summary": "FindBook",
                "operationId": "FindBook",
                "parameters": [
                    {
                        "type": "string",
                        "description": "Book id",
                        "name": "id",
                        "in": "path",
                        "required": true
                    }
                ],
                "responses": {
                    "200": {
                        "description": "OK",
                        "schema": {
                            "$ref": "#/definitions/models.Book"
                        }
                    }
                }
            },
            "delete": {
                "security": [
                    {
                        "ApiKeyAuth": []
                    }
                ],
                "description": "DeleteBook",
                "consumes": [
                    "application/json"
                ],
                "produces": [
                    "application/json"
                ],
                "summary": "DeleteBook",
                "operationId": "DeleteBook",
                "parameters": [
                    {
                        "type": "string",
                        "description": "Book id",
                        "name": "id",
                        "in": "path",
                        "required": true
                    }
                ],
                "responses": {
                    "200": {
                        "description": ""
                    }
                }
            },
            "patch": {
                "security": [
                    {
                        "ApiKeyAuth": []
                    }
                ],
                "description": "UpdateBook",
                "consumes": [
                    "application/json"
                ],
                "produces": [
                    "application/json"
                ],
                "summary": "UpdateBook",
                "operationId": "UpdateBook",
                "parameters": [
                    {
                        "type": "string",
                        "description": "Book id",
                        "name": "id",
                        "in": "path",
                        "required": true
                    },
                    {
                        "description": "body data",
                        "name": "data",
                        "in": "body",
                        "required": true,
                        "schema": {
                            "$ref": "#/definitions/controllers.UpdateBookInput"
                        }
                    }
                ],
                "responses": {
                    "200": {
                        "description": ""
                    }
                }
            }
        },
        "/api/v1/custom/books/{id}": {
            "get": {
                "security": [
                    {
                        "ApiKeyAuth": []
                    }
                ],
                "description": "BookWithAuthor",
                "consumes": [
                    "application/json"
                ],
                "produces": [
                    "application/json"
                ],
                "summary": "BookWithAuthor",
                "operationId": "BookWithAuthor",
                "parameters": [
                    {
                        "type": "string",
                        "description": "Book ID",
                        "name": "id",
                        "in": "path",
                        "required": true
                    }
                ],
                "responses": {
                    "200": {
                        "description": "OK",
                        "schema": {
                            "$ref": "#/definitions/controllers.ExpandedBooksOutput"
                        }
                    }
                }
            }
        }
    },
    "definitions": {
        "controllers.AuthorBooksOutput": {
            "type": "object",
            "required": [
                "author",
                "books",
                "books_amount"
            ],
            "properties": {
                "author": {
                    "type": "string"
                },
                "books": {
                    "type": "array",
                    "items": {
                        "$ref": "#/definitions/models.Book"
                    }
                },
                "books_amount": {
                    "type": "integer"
                },
                "id": {
                    "type": "string"
                }
            }
        },
        "controllers.CreateAuthorInput": {
            "type": "object",
            "required": [
                "author"
            ],
            "properties": {
                "author": {
                    "type": "string",
                    "example": "author"
                }
            }
        },
        "controllers.CreateBookInput": {
            "type": "object",
            "required": [
                "author_id",
                "price",
                "title"
            ],
            "properties": {
                "author_id": {
                    "type": "string"
                },
                "price": {
                    "type": "integer"
                },
                "title": {
                    "type": "string",
                    "example": "title"
                }
            }
        },
        "controllers.ExpandedBooksOutput": {
            "type": "object",
            "required": [
                "price"
            ],
            "properties": {
                "author": {
                    "$ref": "#/definitions/models.Author"
                },
                "author_id": {
                    "type": "string"
                },
                "price": {
                    "type": "integer"
                },
                "title": {
                    "type": "string",
                    "example": "title"
                }
            }
        },
        "controllers.UpdateBookInput": {
            "type": "object",
            "required": [
                "price"
            ],
            "properties": {
                "author_id": {
                    "type": "string"
                },
                "price": {
                    "type": "integer"
                },
                "title": {
                    "type": "string",
                    "example": "title"
                }
            }
        },
        "models.Author": {
            "type": "object",
            "properties": {
                "id": {
                    "type": "string"
                },
                "name": {
                    "type": "string"
                }
            }
        },
        "models.Book": {
            "type": "object",
            "properties": {
                "author_id": {
                    "type": "string"
                },
                "id": {
                    "type": "string"
                },
                "price": {
                    "type": "integer"
                },
                "title": {
                    "type": "string"
                }
            }
        }
    },
    "securityDefinitions": {
        "ApiKeyAuth": {
            "type": "apiKey",
            "name": "X-Token",
            "in": "header"
        }
    }
}